8 Session 8 – Variable types I: logical & numeric vectors – STA 2300 Intro to Data Science
…
When combining conditions, remember the order of operations. To filter flights departing in November or December, write month == 11 | month == 12 or use %in%; writing month == 11 | 12 mistakenly recycles the vector c(11, 12).

Summarising logical vectors

Logical summaries collapse a logical vector to a single value. any(x) returns TRUE if any element of x is TRUE, while all(x) returns TRUE only if every element is TRUE. Both functions accept na.rm = TRUE to ignore missing values. For example, to check if all flights on a given day departed within an hour or if any flights arrived more than five hours late:

flights |>
  group_by(year, month, day) |>
  summarise(
    all_dep_within_hour = all(dep_delay <= 60, na.rm = TRUE),
    any_long_arr_delay  = any(arr_delay >= 300, na.rm = TRUE),
    .groups = "drop"
  )

# A tibble: 365 × 5
    year month   day all_dep_within_hour any_long_arr_delay
   <int> <int> <int> <lgl>               <lgl>             
 1  2013     1     1 FALSE               TRUE              
 2  2013     1     2 FALSE               TRUE              
 3  2013     1     3 FALSE               FALSE             
 4  2013     1     4 FALSE               FALSE             
 5  2013     1     5 FALSE               TRUE              
 6  2013     1     6 FALSE               FALSE             
 7  2013     1     7 FALSE               TRUE              
 8  2013     1     8 FALSE               FALSE             
 9  2013     1     9 FALSE               TRUE              
10  2013     1    10 FALSE               TRUE              
# ℹ 355 more rows

Since logical vectors coerce to numeric (TRUE = 1, FALSE = 0), sum() counts the number of TRUE values and mean() computes their proportion. For instance, the proportion of flights departing within an hour and the number with very long arrival delays can be calculated by:

flights |>
  group_by(year, month, day) |>
  summarise(
    prop_on_time_dep    = mean(dep_delay <= 60, na.rm = TRUE),
    count_long_arr_delay = sum(arr_delay >= 300, na.rm = TRUE),
    .groups = "drop"
  )

# A tibble: 365 × 5
    year month   day prop_on_time_dep count_long_arr_delay
   <int> <int> <int>            <dbl>                <int>
 1  2013     1     1            0.939                    3
 2  2013     1     2            0.914                    3
 3  2013     1     3            0.941                    0
 4  2013     1     4            0.953                    0
 5  2013     1     5            0.964                    1
 6  2013     1     6            0.959                    0
 7  2013     1     7            0.956                    1
 8  2013     1     8            0.975                    0
 9  2013     1     9            0.986                    1
10  2013     1    10            0.977                    2
# ℹ 355 more rows
…
