12 Session 12 – Missing values & data cleaning – STA 2300 Intro to Data Science
…
library(ggplot2)
library(tidyr)

# Compute counts by vore and conservation
counts = msleep |> count(vore, conservation)

# Make implicit missings explicit and replace NA counts with zero
counts_complete = counts |> 
  complete(vore, conservation) |> 
  mutate(n = coalesce(n, 0))

counts_complete |> arrange(vore, conservation)

# A tibble: 35 × 3
   vore  conservation     n
   <chr> <chr>        <dbl>
 1 carni cd               1
 2 carni domesticated     2
 3 carni en               1
 4 carni lc               5
 5 carni nt               1
 6 carni vu               4
 7 carni <NA>             5
 8 herbi cd               1
 9 herbi domesticated     7
10 herbi en               2
# ℹ 25 more rows
…
