13 Session 13 – Relational data – STA 2300 Intro to Data Science
…
Full join (full_join(x, y)): keeps all rows from both x and y, filling in NA where there is no match.

Mutating joins add columns like mutate(), so if your table has many variables you might not notice the added columns. Use select() before joining to narrow to relevant keys and columns. When you join on keys that are not unique in one or both tables, dplyr will duplicate rows for each match; this can create a many-to-many join that expands your dataset dramatically and triggers a warning.

Specifying join keys

By default, dplyr uses all variables that appear in both tables as the join key. This works if the keys have the same name in both tables but can cause unexpected matches. You can specify the key(s) with the by argument:

library(tidyverse)
library(nycflights13
        )
flights |> 
  left_join(airlines, by = "carrier")

# A tibble: 336,776 × 20
    year month   day dep_time sched_dep_time dep_delay arr_time sched_arr_time
   <int> <int> <int>    <int>          <int>     <dbl>    <int>          <int>
 1  2013     1     1      517            515         2      830            819
 2  2013     1     1      533            529         4      850            830
 3  2013     1     1      542            540         2      923            850
 4  2013     1     1      544            545        -1     1004           1022
 5  2013     1     1      554            600        -6      812            837
 6  2013     1     1      554            558        -4      740            728
 7  2013     1     1      555            600        -5      913            854
 8  2013     1     1      557            600        -3      709            723
 9  2013     1     1      557            600        -3      838            846
10  2013     1     1      558            600        -2      753            745
# ℹ 336,766 more rows
# ℹ 12 more variables: arr_delay <dbl>, carrier <chr>, flight <int>,
#   tailnum <chr>, origin <chr>, dest <chr>, air_time <dbl>, distance <dbl>,
#   hour <dbl>, minute <dbl>, time_hour <dttm>, name <chr>
…
